104predictimage1.jpg       (0.89562, 0.10438) --> speedy 	 INCORRECT: 104
datejustpredictimage1.jpg  (0.99285, 0.00715) --> speedy 	 INCORRECT: datejust
memepredictimage1.png      (0.99937, 0.00063) --> speedy 	 INCORRECT: meme
pelagospredictimage1.jpg   (0.47106, 0.52894) --> sub    	 INCORRECT: pelagos
plutopredictimage1.jpg     (0.04407, 0.95593) --> sub    	 INCORRECT: pluto
predictimagesfamily.png    (0.58388, 0.41612) --> speedy 	 INCORRECT: 
speedypredictimage1.jpg    (0.91077, 0.08923) --> speedy 	 CORRECT
speedypredictimage2.jpg    (0.95156, 0.04844) --> speedy 	 CORRECT
speedypredictimage3.jpg    (0.67156, 0.32844) --> speedy 	 CORRECT
srppredictimage1.jpg       (0.73029, 0.26971) --> speedy 	 INCORRECT: srp
subpredictimage1.jpg         (0.0004, 0.9996) --> sub    	 CORRECT
subpredictimage2.jpg       (0.03264, 0.96736) --> sub    	 CORRECT
